{
  "stats": {
    "suites": 1,
    "tests": 1,
    "passes": 1,
    "pending": 0,
    "failures": 0,
    "start": "2019-05-10T19:32:07.123Z",
    "end": "2019-05-10T19:32:07.592Z",
    "duration": 469,
    "testsRegistered": 1,
    "passPercent": 100,
    "pendingPercent": 0,
    "other": 0,
    "hasOther": false,
    "skipped": 0,
    "hasSkipped": false,
    "passPercentClass": "success",
    "pendingPercentClass": "danger"
  },
  "suites": {
    "uuid": "ee692da4-b6ba-4773-b37d-00b8dca0b5d8",
    "title": "",
    "fullFile": "",
    "file": "",
    "beforeHooks": [
      {
        "title": "\"before all\" hook",
        "fullTitle": " \"before all\" hook",
        "timedOut": false,
        "duration": 91,
        "pass": false,
        "fail": false,
        "pending": false,
        "code": "cepService = new cepService(this);\nvalidCep = \"01307001\";\nvalidCepLogradouro = config.util.VALID_CEP_01307001_LOGRADOURO;\nvalidCepBairro = config.util.VALID_CEP_01307001_BAIRRO;\nvalidCepCidade = config.util.VALID_CEP_01307001_CIDADE;\nvalidCepEstado = config.util.VALID_CEP_01307001_ESTADO;",
        "err": {},
        "isRoot": true,
        "uuid": "b834a34a-f26e-400e-9507-0a3355bd4c4d",
        "isHook": true,
        "skipped": false
      }
    ],
    "afterHooks": [],
    "tests": [],
    "suites": [
      {
        "uuid": "7caa41ee-cf7e-4e8d-8cd8-1f176a251d3d",
        "title": "Testes na API de CEP",
        "fullFile": "C:\\Users\\AS\\Documents\\LTM\\Archive\\cep-api-tests\\api\\cep.js",
        "file": "\\api\\cep.js",
        "beforeHooks": [],
        "afterHooks": [],
        "tests": [
          {
            "title": "Obtém um CEP válido e valida os dados retornados",
            "fullTitle": "Testes na API de CEP Obtém um CEP válido e valida os dados retornados",
            "timedOut": false,
            "duration": 371,
            "state": "passed",
            "speed": "fast",
            "pass": true,
            "fail": false,
            "pending": false,
            "code": "let responseGetCep = await cepService.getCep(validCep);\nexpect(config.util.HTTP.OK, 'Deve retornar o HTTP status code').to.equal(responseGetCep.statusCode);\nexpect(validCep, 'Deve retornar o cep').to.equal(responseGetCep.body.cep);\nexpect(validCepLogradouro, 'Deve retornar o logradouro').to.equal(responseGetCep.body.logradouro);\nexpect(validCepBairro, 'Deve retornar o bairro').to.equal(responseGetCep.body.bairro);\nexpect(validCepCidade, 'Deve retornar o cidade').to.equal(responseGetCep.body.cidade);\nexpect(validCepEstado, 'Deve retornar o estado').to.equal(responseGetCep.body.estado);",
            "err": {},
            "isRoot": false,
            "uuid": "f4317d99-ac72-47f3-9cfb-fc64e8a030aa",
            "isHook": false,
            "skipped": false
          }
        ],
        "suites": [],
        "passes": [
          "f4317d99-ac72-47f3-9cfb-fc64e8a030aa"
        ],
        "failures": [],
        "pending": [],
        "skipped": [],
        "duration": 371,
        "root": false,
        "rootEmpty": false,
        "_timeout": 99999999
      }
    ],
    "passes": [],
    "failures": [],
    "pending": [],
    "skipped": [],
    "duration": 0,
    "root": true,
    "rootEmpty": true,
    "_timeout": 99999999
  },
  "copyrightYear": 2019
}